<?xml version="1.0" encoding="UTF-8" standalone="no"?>
<svg width="101px" height="36px" viewBox="0 0 101 36" version="1.1" xmlns="http://www.w3.org/2000/svg" xmlns:xlink="http://www.w3.org/1999/xlink">
    <!-- Generator: Sketch 49.2 (51160) - http://www.bohemiancoding.com/sketch -->
    <title>diamonds</title>
    <desc>Created with Sketch.</desc>
    <defs></defs>
    <g id="Symbols" stroke="none" stroke-width="1" fill="none" fill-rule="evenodd">
        <g id="Property-Icons" transform="translate(-2.000000, 1.000000)" stroke="#000000">
            <polygon id="diamonds" points="85.8820033 0 69.1896375 16.5174051 52.4990905 0 35.8085436 16.5174051 19.1161777 0 2.21099645 16.7279899 2 16.9385747 19.1161777 33.8771493 35.8085436 17.3597442 52.4990905 33.8771493 69.1914564 17.3597442 85.8820033 33.8771493 102.787185 17.1491594 103 16.9385747"></polygon>
        </g>
    </g>
</svg>